Assignment-2/datapath.vcd
$date
	Mon Apr 13 16:50:38 2026
$end
$version
	Icarus Verilog
$end
$timescale
	1ps
$end
$scope module datapath_tb $end
$var wire 32 ! pc_out [31:0] $end
$var wire 32 " alu_result [31:0] $end
$var reg 3 # alu_ctrl [2:0] $end
$var reg 1 $ alu_src $end
$var reg 1 % clk $end
$var reg 1 & mem_to_reg $end
$var reg 1 ' mem_write_en $end
$var reg 1 ( reg_dst $end
$var reg 1 ) reg_write_en $end
$var reg 1 * rst_n $end
$scope module uut $end
$var wire 3 + alu_ctrl [2:0] $end
$var wire 1 $ alu_src $end
$var wire 1 % clk $end
$var wire 1 & mem_to_reg $end
$var wire 1 ' mem_write_en $end
$var wire 32 , pc_out [31:0] $end
$var wire 1 ( reg_dst $end
$var wire 1 ) reg_write_en $end
$var wire 1 * rst_n $end
$var wire 1 - zero_flag $end
$var wire 5 . write_reg [4:0] $end
$var wire 32 / src_b [31:0] $end
$var wire 32 0 sign_imm [31:0] $end
$var wire 32 1 result [31:0] $end
$var wire 32 2 read_data [31:0] $end
$var wire 32 3 rd2 [31:0] $end
$var wire 32 4 rd1 [31:0] $end
$var wire 32 5 pc [31:0] $end
$var wire 32 6 instr [31:0] $end
$var wire 32 7 alu_result [31:0] $end
$scope module u_alu $end
$var wire 3 8 alu_ctrl [2:0] $end
$var wire 32 9 src_b [31:0] $end
$var wire 1 - zero $end
$var wire 32 : src_a [31:0] $end
$var reg 32 ; result [31:0] $end
$upscope $end
$scope module u_data_mem $end
$var wire 32 < addr [31:0] $end
$var wire 1 % clk $end
$var wire 1 ' mem_write_en $end
$var wire 32 = read_data [31:0] $end
$var wire 32 > write_data [31:0] $end
$var parameter 32 ? DEPTH $end
$var parameter 32 @ WIDTH $end
$upscope $end
$scope module u_if_stage $end
$var wire 1 % clk $end
$var wire 32 A current_pc [31:0] $end
$var wire 1 * rst_n $end
$var wire 32 B pc_next [31:0] $end
$var wire 32 C pc [31:0] $end
$var wire 32 D instr [31:0] $end
$scope module u_imem $end
$var wire 32 E rd [31:0] $end
$var wire 32 F addr [31:0] $end
$var parameter 32 G DEPTH $end
$var parameter 32 H WIDTH $end
$upscope $end
$scope module u_pc $end
$var wire 1 % clk $end
$var wire 32 I pc_next [31:0] $end
$var wire 1 * rst_n $end
$var reg 32 J pc [31:0] $end
$upscope $end
$upscope $end
$scope module u_reg_file $end
$var wire 1 % clk $end
$var wire 5 K ra1 [4:0] $end
$var wire 5 L ra2 [4:0] $end
$var wire 5 M wa3 [4:0] $end
$var wire 32 N wd3 [31:0] $end
$var wire 1 ) we3 $end
$var wire 32 O rd2 [31:0] $end
$var wire 32 P rd1 [31:0] $end
$upscope $end
$upscope $end
$upscope $end
$enddefinitions $end
$comment Show the parameter values. $end
$dumpall
b100000 H
b100000000 G
b100000 @
b100000000 ?
$end
#0
$dumpvars
b0 P
bx O
b0 N
b1000 M
b1000 L
b0 K
b0 J
b100 I
b0 F
b100000000010000000000000000111 E
b100000000010000000000000000111 D
b0 C
b100 B
b0 A
bx >
bx =
b0 <
b0 ;
b0 :
bx 9
b0 8
b0 7
b100000000010000000000000000111 6
b0 5
b0 4
bx 3
bx 2
b0 1
b111 0
bx /
b1000 .
1-
b0 ,
b0 +
0*
0)
0(
0'
0&
0%
0$
b0 #
b0 "
b0 !
$end
#5000
1%
#10000
b111 1
b111 N
0-
b111 "
b111 7
b111 ;
b111 <
b111 /
b111 9
0%
b10 #
b10 +
b10 8
1$
1)
1*
#15000
b11 1
b11 N
b11 "
b11 7
b11 ;
b11 <
b11 /
b11 9
b1001 .
b1001 M
b11 0
b1001 L
bx 3
bx >
bx O
b100000000010010000000000000011 6
b100000000010010000000000000011 D
b100000000010010000000000000011 E
b1000 B
b1000 I
b100 !
b100 ,
b100 5
b100 A
b100 C
b100 F
b100 J
1%
#20000
0%
#25000
b101000000101001 1
b101000000101001 N
b101000000101001 "
b101000000101001 7
b101000000101001 ;
b101000000101001 <
b101000000100010 /
b101000000100010 9
b111 4
b111 :
b111 P
b101000000100010 0
b1000 K
b11 3
b11 >
b11 O
b1000010010101000000100010 6
b1000010010101000000100010 D
b1000010010101000000100010 E
b1100 B
b1100 I
b1000 !
b1000 ,
b1000 5
b1000 A
b1000 C
b1000 F
b1000 J
1%
#26000
b100 1
b100 N
b1010 .
b1010 M
b100 "
b100 7
b100 ;
b100 <
b11 /
b11 9
1(
b110 #
b110 +
b110 8
0$
#30000
0%
#35000
b11111111111111111111111111111100 1
b11111111111111111111111111111100 N
b100 /
b100 9
b11111111111111111111111111111100 "
b11111111111111111111111111111100 7
b11111111111111111111111111111100 ;
b11111111111111111111111111111100 <
b100 3
b100 >
b100 O
b0 4
b0 :
b0 P
b0 .
b0 M
b100 0
b1010 L
b0 K
b10101100000010100000000000000100 6
b10101100000010100000000000000100 D
b10101100000010100000000000000100 E
b10000 B
b10000 I
b1100 !
b1100 ,
b1100 5
b1100 A
b1100 C
b1100 F
b1100 J
1%
#36000
b100 1
b100 N
b100 "
b100 7
b100 ;
b100 <
1'
b10 #
b10 +
b10 8
1$
0)
#40000
0%
#45000
bx 1
bx N
x-
bx "
bx 7
bx ;
bx <
bx /
bx 9
bx 3
bx >
bx O
bx 4
bx :
bx P
bx .
bx M
bx 0
bx L
bx K
bx 6
bx D
bx E
bx 2
bx =
b10100 B
b10100 I
b10000 !
b10000 ,
b10000 5
b10000 A
b10000 C
b10000 F
b10000 J
1%
#50000
0%
#55000
b11000 B
b11000 I
b10100 !
b10100 ,
b10100 5
b10100 A
b10100 C
b10100 F
b10100 J
1%
#60000
0%
#65000
b11100 B
b11100 I
b11000 !
b11000 ,
b11000 5
b11000 A
b11000 C
b11000 F
b11000 J
1%
