Assignment-41/mips.vcd
$date
	Fri Jun 12 23:35:43 2026
$end
$version
	Icarus Verilog
$end
$timescale
	1ps
$end
$scope module mips_tb $end
$var wire 32 ! pc_out [31:0] $end
$var wire 32 " alu_result [31:0] $end
$var reg 1 # clk $end
$var reg 1 $ rst_n $end
$scope module uut $end
$var wire 1 # clk $end
$var wire 1 $ rst_n $end
$var wire 1 % reg_write_D $end
$var wire 1 & reg_dst_D $end
$var wire 32 ' pc_out [31:0] $end
$var wire 1 ( mem_write_D $end
$var wire 1 ) mem_to_reg_D $end
$var wire 32 * instr_D [31:0] $end
$var wire 1 + branch_D $end
$var wire 1 , alu_src_D $end
$var wire 32 - alu_result [31:0] $end
$var wire 3 . alu_ctrl_D [2:0] $end
$scope module u_control $end
$var wire 6 / funct [5:0] $end
$var wire 6 0 opcode [5:0] $end
$var wire 1 % reg_write $end
$var wire 1 & reg_dst $end
$var wire 1 ( mem_write $end
$var wire 1 ) mem_to_reg $end
$var wire 1 + branch $end
$var wire 1 , alu_src $end
$var wire 2 1 alu_op [1:0] $end
$var wire 3 2 alu_ctrl [2:0] $end
$scope module u_alu_dec $end
$var wire 6 3 funct [5:0] $end
$var wire 2 4 alu_op [1:0] $end
$var reg 3 5 alu_ctrl [2:0] $end
$upscope $end
$scope module u_main_dec $end
$var wire 6 6 opcode [5:0] $end
$var wire 1 % reg_write $end
$var wire 1 & reg_dst $end
$var wire 1 ( mem_write $end
$var wire 1 ) mem_to_reg $end
$var wire 1 + branch $end
$var wire 1 , alu_src $end
$var wire 2 7 alu_op [1:0] $end
$var reg 9 8 controls [8:0] $end
$upscope $end
$upscope $end
$scope module u_datapath $end
$var wire 3 9 alu_ctrl_D [2:0] $end
$var wire 32 : alu_result_out [31:0] $end
$var wire 1 , alu_src_D $end
$var wire 1 + branch_D $end
$var wire 1 # clk $end
$var wire 1 ) mem_to_reg_D $end
$var wire 1 ( mem_write_D $end
$var wire 32 ; pc_out [31:0] $end
$var wire 1 < pc_src_D $end
$var wire 1 & reg_dst_D $end
$var wire 1 % reg_write_D $end
$var wire 1 $ rst_n $end
$var wire 1 = zero_E $end
$var wire 5 > write_reg_W [4:0] $end
$var wire 5 ? write_reg_E [4:0] $end
$var wire 32 @ src_b_E [31:0] $end
$var wire 32 A sign_imm_D [31:0] $end
$var wire 32 B result_W [31:0] $end
$var wire 1 C reg_write_W $end
$var wire 32 D read_data_M [31:0] $end
$var wire 32 E rd2_D [31:0] $end
$var wire 32 F rd1_D [31:0] $end
$var wire 32 G pc_plus4_F [31:0] $end
$var wire 32 H pc_next_F [31:0] $end
$var wire 32 I pc_branch_D [31:0] $end
$var wire 32 J pc_F [31:0] $end
$var wire 32 K instr_F [31:0] $end
$var wire 32 L instr_D [31:0] $end
$var wire 1 M bne_D $end
$var wire 32 N alu_result_E [31:0] $end
$var reg 3 O alu_ctrl_E [2:0] $end
$var reg 32 P alu_result_M [31:0] $end
$var reg 32 Q alu_result_W [31:0] $end
$var reg 1 R alu_src_E $end
$var reg 32 S instr_D_reg [31:0] $end
$var reg 1 T mem_to_reg_E $end
$var reg 1 U mem_to_reg_M $end
$var reg 1 V mem_to_reg_W $end
$var reg 1 W mem_write_E $end
$var reg 1 X mem_write_M $end
$var reg 32 Y pc_plus4_D [31:0] $end
$var reg 32 Z rd1_E [31:0] $end
$var reg 32 [ rd2_E [31:0] $end
$var reg 5 \ rd_E [4:0] $end
$var reg 32 ] read_data_W [31:0] $end
$var reg 1 ^ reg_dst_E $end
$var reg 1 _ reg_write_E $end
$var reg 1 ` reg_write_M $end
$var reg 1 C reg_write_W_reg $end
$var reg 5 a rs_E [4:0] $end
$var reg 5 b rt_E [4:0] $end
$var reg 32 c sign_imm_E [31:0] $end
$var reg 32 d write_data_M [31:0] $end
$var reg 5 e write_reg_M [4:0] $end
$var reg 5 f write_reg_W_reg [4:0] $end
$scope module u_alu $end
$var wire 3 g alu_ctrl [2:0] $end
$var wire 32 h src_a [31:0] $end
$var wire 32 i src_b [31:0] $end
$var wire 1 = zero $end
$var reg 32 j result [31:0] $end
$upscope $end
$scope module u_data_mem $end
$var wire 32 k addr [31:0] $end
$var wire 1 # clk $end
$var wire 1 X mem_write_en $end
$var wire 32 l read_data [31:0] $end
$var wire 32 m write_data [31:0] $end
$var parameter 32 n DEPTH $end
$var parameter 32 o WIDTH $end
$upscope $end
$scope module u_imem $end
$var wire 32 p rd [31:0] $end
$var wire 32 q addr [31:0] $end
$var parameter 32 r DEPTH $end
$var parameter 32 s WIDTH $end
$upscope $end
$scope module u_pc $end
$var wire 1 # clk $end
$var wire 32 t pc_next [31:0] $end
$var wire 1 $ rst_n $end
$var reg 32 u pc [31:0] $end
$upscope $end
$scope module u_reg_file $end
$var wire 1 # clk $end
$var wire 5 v ra1 [4:0] $end
$var wire 5 w ra2 [4:0] $end
$var wire 5 x wa3 [4:0] $end
$var wire 32 y wd3 [31:0] $end
$var wire 1 C we3 $end
$var wire 32 z rd2 [31:0] $end
$var wire 32 { rd1 [31:0] $end
$var integer 32 | i [31:0] $end
$upscope $end
$upscope $end
$upscope $end
$upscope $end
$enddefinitions $end
$comment Show the parameter values. $end
$dumpall
b100000 s
b100000000 r
b100000 o
b100000000 n
$end
#0
$dumpvars
b100000 |
b0 {
b0 z
b0 y
b0 x
b0 w
b0 v
b0 u
b100 t
b0 q
b100000000010000000000000000101 p
b0 m
bx l
b0 k
b0 j
b0 i
b0 h
b0 g
b0 f
b0 e
b0 d
b0 c
b0 b
b0 a
0`
0_
0^
b0 ]
b0 \
b0 [
b0 Z
b0 Y
0X
0W
0V
0U
0T
b0 S
0R
b0 Q
b0 P
b0 O
b0 N
0M
b0 L
b100000000010000000000000000101 K
b0 J
b0 I
b100 H
b100 G
b0 F
b0 E
bx D
0C
b0 B
b0 A
b0 @
b0 ?
b0 >
1=
0<
b0 ;
b0 :
b10 9
b11000010 8
b10 7
b0 6
b10 5
b10 4
b0 3
b10 2
b10 1
b0 0
b0 /
b10 .
b0 -
0,
0+
b0 *
0)
0(
b0 '
1&
1%
0$
0#
b0 "
b0 !
$end
#5000
1#
#10000
0#
#15000
b0 1
b0 4
b0 7
1,
0&
b10100000 8
b100000000010010000000000000101 K
b100000000010010000000000000101 p
b1000 H
b1000 t
b1000 w
b101 A
b101 /
b101 3
b1000 0
b1000 6
b1000 G
b100 !
b100 '
b100 ;
b100 J
b100 q
b100 u
b11000 I
b100 Y
b100000000010000000000000000101 *
b100000000010000000000000000101 L
b100000000010000000000000000101 S
1^
b10 O
b10 g
1_
bx ]
1#
1$
#20000
0#
#25000
0=
b101 N
b101 j
b1000 ?
b101 @
b101 i
b1001 w
b10001000010011111111111111101 K
b10001000010011111111111111101 p
b1100 H
b1100 t
1`
b1000 b
b101 c
0^
1R
b11100 I
b1000 Y
b100000000010010000000000000101 *
b100000000010010000000000000101 L
b100000000010010000000000000101 S
b1100 G
b1000 !
b1000 '
b1000 ;
b1000 J
b1000 q
b1000 u
1#
#30000
0#
#35000
b110 .
b110 2
b110 5
b110 9
1<
b1 1
b1 4
b1 7
1+
0,
0%
b10001 8
b100000000010100000000010011001 K
b100000000010100000000010011001 p
b0 H
b0 t
b1000 v
b11111111111111111111111111111101 A
b111101 /
b111101 3
b100 0
b100 6
b1001 ?
b10000 G
b1100 !
b1100 '
b1100 ;
b1100 J
b1100 q
b1100 u
b0 I
b1100 Y
b10001000010011111111111111101 *
b10001000010011111111111111101 L
b10001000010011111111111111101 S
b1001 b
b1000 e
b101 P
b101 k
1C
1#
#40000
0#
#45000
b10 .
b10 2
b10 5
b10 9
0<
b0 1
b0 4
b0 7
0+
1,
1%
1=
b10100000 8
b101 "
b101 -
b101 :
b101 B
b101 y
b0 @
b0 i
b0 N
b0 j
b100 H
b100 t
b0 v
b1010 w
b10011001 A
b11001 /
b11001 3
b1000 0
b1000 6
b100000000010000000000000000101 K
b100000000010000000000000000101 p
b1000 >
b1000 f
b1000 x
b101 Q
b1001 e
b11111 \
b1000 a
b11111111111111111111111111111101 c
0R
b110 O
b110 g
0_
b1001110100 I
b10000 Y
b100000000010100000000010011001 *
b100000000010100000000010011001 L
b100000000010100000000010011001 S
b100 G
b0 !
b0 '
b0 ;
b0 J
b0 q
b0 u
1#
#50000
0#
#55000
b101 E
b101 z
0=
b10011001 N
b10011001 j
b100000000010010000000000000101 K
b100000000010010000000000000101 p
b1000 H
b1000 t
b1000 w
b101 A
b101 /
b101 3
b1010 ?
b10011001 @
b10011001 i
b1000 G
b100 !
b100 '
b100 ;
b100 J
b100 q
b100 u
b11000 I
b100 Y
b100000000010000000000000000101 *
b100000000010000000000000000101 L
b100000000010000000000000000101 S
b0 \
b1010 b
b0 a
b10011001 c
1R
b10 O
b10 g
1_
b0 P
b0 k
0`
b1001 >
b1001 f
b1001 x
1#
#60000
0#
#65000
b101 N
b101 j
b0 "
b0 -
b0 :
b0 B
b0 y
b1000 ?
b101 @
b101 i
b1001 w
b10001000010011111111111111101 K
b10001000010011111111111111101 p
b1100 H
b1100 t
b0 Q
0C
b1010 e
b10011001 P
b10011001 k
1`
b1000 b
b101 c
b101 [
b11100 I
b1000 Y
b100000000010010000000000000101 *
b100000000010010000000000000101 L
b100000000010010000000000000101 S
b1100 G
b1000 !
b1000 '
b1000 ;
b1000 J
b1000 q
b1000 u
1#
#70000
0#
#75000
b110 .
b110 2
b110 5
b110 9
1<
b1 1
b1 4
b1 7
1+
0,
0%
b101 F
b101 {
b10001 8
b100000000010100000000010011001 K
b100000000010100000000010011001 p
b0 H
b0 t
b1000 v
b11111111111111111111111111111101 A
b111101 /
b111101 3
b100 0
b100 6
b1001 ?
b10011001 "
b10011001 -
b10011001 :
b10011001 B
b10011001 y
b10000 G
b1100 !
b1100 '
b1100 ;
b1100 J
b1100 q
b1100 u
b0 I
b1100 Y
b10001000010011111111111111101 *
b10001000010011111111111111101 L
b10001000010011111111111111101 S
b1001 b
b1000 e
b101 d
b101 m
b101 P
b101 k
b1010 >
b1010 f
b1010 x
b10011001 Q
1C
1#
#80000
0#
#85000
b10 .
b10 2
b10 5
b10 9
0<
b0 1
b0 4
b0 7
0+
1,
1%
b10011001 E
b10011001 z
b0 F
b0 {
b10100000 8
b101 "
b101 -
b101 :
b101 B
b101 y
1=
b0 N
b0 j
b100 H
b100 t
b0 v
b1010 w
b10011001 A
b11001 /
b11001 3
b1000 0
b1000 6
b100000000010000000000000000101 K
b100000000010000000000000000101 p
b1000 >
b1000 f
b1000 x
b101 Q
b1001 e
b11111 \
b1000 a
b11111111111111111111111111111101 c
b101 Z
b101 h
0R
b110 O
b110 g
0_
b1001110100 I
b10000 Y
b100000000010100000000010011001 *
b100000000010100000000010011001 L
b100000000010100000000010011001 S
b100 G
b0 !
b0 '
b0 ;
b0 J
b0 q
b0 u
1#
#90000
0#
#95000
b101 E
b101 z
b100000000010010000000000000101 K
b100000000010010000000000000101 p
b1000 H
b1000 t
b1000 w
b101 A
b101 /
b101 3
b1010 ?
b10011001 @
b10011001 i
0=
b10011001 N
b10011001 j
b1000 G
b100 !
b100 '
b100 ;
b100 J
b100 q
b100 u
b11000 I
b100 Y
b100000000010000000000000000101 *
b100000000010000000000000000101 L
b100000000010000000000000000101 S
b0 \
b1010 b
b0 a
b10011001 c
b10011001 [
b0 Z
b0 h
1R
b10 O
b10 g
1_
b0 P
b0 k
0`
b1001 >
b1001 f
b1001 x
1#
#100000
0#
#105000
b101 N
b101 j
b0 "
b0 -
b0 :
b0 B
b0 y
b1000 ?
b101 @
b101 i
b1001 w
b10001000010011111111111111101 K
b10001000010011111111111111101 p
b1100 H
b1100 t
b0 Q
0C
b1010 e
b10011001 d
b10011001 m
b10011001 P
b10011001 k
1`
b1000 b
b101 c
b101 [
b11100 I
b1000 Y
b100000000010010000000000000101 *
b100000000010010000000000000101 L
b100000000010010000000000000101 S
b1100 G
b1000 !
b1000 '
b1000 ;
b1000 J
b1000 q
b1000 u
1#
#110000
0#
#115000
b110 .
b110 2
b110 5
b110 9
1<
b1 1
b1 4
b1 7
1+
0,
0%
b101 F
b101 {
b10001 8
b100000000010100000000010011001 K
b100000000010100000000010011001 p
b0 H
b0 t
b1000 v
b11111111111111111111111111111101 A
b111101 /
b111101 3
b100 0
b100 6
b1001 ?
b10011001 "
b10011001 -
b10011001 :
b10011001 B
b10011001 y
b10000 G
b1100 !
b1100 '
b1100 ;
b1100 J
b1100 q
b1100 u
b0 I
b1100 Y
b10001000010011111111111111101 *
b10001000010011111111111111101 L
b10001000010011111111111111101 S
b1001 b
b1000 e
b101 d
b101 m
b101 P
b101 k
b1010 >
b1010 f
b1010 x
b10011001 Q
1C
1#
#120000
0#
#125000
b10 .
b10 2
b10 5
b10 9
0<
b0 1
b0 4
b0 7
0+
1,
1%
b10011001 E
b10011001 z
b0 F
b0 {
b10100000 8
b101 "
b101 -
b101 :
b101 B
b101 y
1=
b0 N
b0 j
b100 H
b100 t
b0 v
b1010 w
b10011001 A
b11001 /
b11001 3
b1000 0
b1000 6
b100000000010000000000000000101 K
b100000000010000000000000000101 p
b1000 >
b1000 f
b1000 x
b101 Q
b1001 e
b11111 \
b1000 a
b11111111111111111111111111111101 c
b101 Z
b101 h
0R
b110 O
b110 g
0_
b1001110100 I
b10000 Y
b100000000010100000000010011001 *
b100000000010100000000010011001 L
b100000000010100000000010011001 S
b100 G
b0 !
b0 '
b0 ;
b0 J
b0 q
b0 u
1#
#130000
0#
#135000
b101 E
b101 z
b100000000010010000000000000101 K
b100000000010010000000000000101 p
b1000 H
b1000 t
b1000 w
b101 A
b101 /
b101 3
b1010 ?
b10011001 @
b10011001 i
0=
b10011001 N
b10011001 j
b1000 G
b100 !
b100 '
b100 ;
b100 J
b100 q
b100 u
b11000 I
b100 Y
b100000000010000000000000000101 *
b100000000010000000000000000101 L
b100000000010000000000000000101 S
b0 \
b1010 b
b0 a
b10011001 c
b10011001 [
b0 Z
b0 h
1R
b10 O
b10 g
1_
b0 P
b0 k
0`
b1001 >
b1001 f
b1001 x
1#
#140000
0#
#145000
b101 N
b101 j
b0 "
b0 -
b0 :
b0 B
b0 y
b1000 ?
b101 @
b101 i
b1001 w
b10001000010011111111111111101 K
b10001000010011111111111111101 p
b1100 H
b1100 t
b0 Q
0C
b1010 e
b10011001 d
b10011001 m
b10011001 P
b10011001 k
1`
b1000 b
b101 c
b101 [
b11100 I
b1000 Y
b100000000010010000000000000101 *
b100000000010010000000000000101 L
b100000000010010000000000000101 S
b1100 G
b1000 !
b1000 '
b1000 ;
b1000 J
b1000 q
b1000 u
1#
#150000
0#
#155000
b110 .
b110 2
b110 5
b110 9
1<
b1 1
b1 4
b1 7
1+
0,
0%
b101 F
b101 {
b10001 8
b100000000010100000000010011001 K
b100000000010100000000010011001 p
b0 H
b0 t
b1000 v
b11111111111111111111111111111101 A
b111101 /
b111101 3
b100 0
b100 6
b1001 ?
b10011001 "
b10011001 -
b10011001 :
b10011001 B
b10011001 y
b10000 G
b1100 !
b1100 '
b1100 ;
b1100 J
b1100 q
b1100 u
b0 I
b1100 Y
b10001000010011111111111111101 *
b10001000010011111111111111101 L
b10001000010011111111111111101 S
b1001 b
b1000 e
b101 d
b101 m
b101 P
b101 k
b1010 >
b1010 f
b1010 x
b10011001 Q
1C
1#
#160000
0#
#165000
b10 .
b10 2
b10 5
b10 9
0<
b0 1
b0 4
b0 7
0+
1,
1%
b10011001 E
b10011001 z
b0 F
b0 {
b10100000 8
b101 "
b101 -
b101 :
b101 B
b101 y
1=
b0 N
b0 j
b100 H
b100 t
b0 v
b1010 w
b10011001 A
b11001 /
b11001 3
b1000 0
b1000 6
b100000000010000000000000000101 K
b100000000010000000000000000101 p
b1000 >
b1000 f
b1000 x
b101 Q
b1001 e
b11111 \
b1000 a
b11111111111111111111111111111101 c
b101 Z
b101 h
0R
b110 O
b110 g
0_
b1001110100 I
b10000 Y
b100000000010100000000010011001 *
b100000000010100000000010011001 L
b100000000010100000000010011001 S
b100 G
b0 !
b0 '
b0 ;
b0 J
b0 q
b0 u
1#
#170000
0#
#175000
b101 E
b101 z
b100000000010010000000000000101 K
b100000000010010000000000000101 p
b1000 H
b1000 t
b1000 w
b101 A
b101 /
b101 3
b1010 ?
b10011001 @
b10011001 i
0=
b10011001 N
b10011001 j
b1000 G
b100 !
b100 '
b100 ;
b100 J
b100 q
b100 u
b11000 I
b100 Y
b100000000010000000000000000101 *
b100000000010000000000000000101 L
b100000000010000000000000000101 S
b0 \
b1010 b
b0 a
b10011001 c
b10011001 [
b0 Z
b0 h
1R
b10 O
b10 g
1_
b0 P
b0 k
0`
b1001 >
b1001 f
b1001 x
1#
#180000
0#
#185000
b101 N
b101 j
b0 "
b0 -
b0 :
b0 B
b0 y
b1000 ?
b101 @
b101 i
b1001 w
b10001000010011111111111111101 K
b10001000010011111111111111101 p
b1100 H
b1100 t
b0 Q
0C
b1010 e
b10011001 d
b10011001 m
b10011001 P
b10011001 k
1`
b1000 b
b101 c
b101 [
b11100 I
b1000 Y
b100000000010010000000000000101 *
b100000000010010000000000000101 L
b100000000010010000000000000101 S
b1100 G
b1000 !
b1000 '
b1000 ;
b1000 J
b1000 q
b1000 u
1#
#190000
0#
#195000
b110 .
b110 2
b110 5
b110 9
1<
b1 1
b1 4
b1 7
1+
0,
0%
b101 F
b101 {
b10001 8
b100000000010100000000010011001 K
b100000000010100000000010011001 p
b0 H
b0 t
b1000 v
b11111111111111111111111111111101 A
b111101 /
b111101 3
b100 0
b100 6
b1001 ?
b10011001 "
b10011001 -
b10011001 :
b10011001 B
b10011001 y
b10000 G
b1100 !
b1100 '
b1100 ;
b1100 J
b1100 q
b1100 u
b0 I
b1100 Y
b10001000010011111111111111101 *
b10001000010011111111111111101 L
b10001000010011111111111111101 S
b1001 b
b1000 e
b101 d
b101 m
b101 P
b101 k
b1010 >
b1010 f
b1010 x
b10011001 Q
1C
1#
#200000
0#
#205000
b10 .
b10 2
b10 5
b10 9
0<
b0 1
b0 4
b0 7
0+
1,
1%
b10011001 E
b10011001 z
b0 F
b0 {
b10100000 8
b101 "
b101 -
b101 :
b101 B
b101 y
1=
b0 N
b0 j
b100 H
b100 t
b0 v
b1010 w
b10011001 A
b11001 /
b11001 3
b1000 0
b1000 6
b100000000010000000000000000101 K
b100000000010000000000000000101 p
b1000 >
b1000 f
b1000 x
b101 Q
b1001 e
b11111 \
b1000 a
b11111111111111111111111111111101 c
b101 Z
b101 h
0R
b110 O
b110 g
0_
b1001110100 I
b10000 Y
b100000000010100000000010011001 *
b100000000010100000000010011001 L
b100000000010100000000010011001 S
b100 G
b0 !
b0 '
b0 ;
b0 J
b0 q
b0 u
1#
